1 10 20
100 200 125
201 210 89
900 1000 174
1 1 1
200 200 27
200 100 125
1 1000000 525
45890 800150 509
860272 628196 525
310817 547715 470
717348 318394 509
600081 898292 525
990154 770673 525
274506 427234 449
345299 277415 389
344180 438866 449
788386 459188 509
655106 789238 504
273321 605198 470
835256 825544 419
719014 161126 509
143816 428870 449
189264 766409 509
121666 93084 354
882371 765965 525
409191 393942 405
350122 471795 449
270507 214373 443
218391 478306 449
917992 293556 525
853427 462332 525
688419 829089 504
917271 697106 525
848240 506031 525
480436 284216 449
785862 975088 525
372274 270199 441
216528 875010 525
217854 223191 355
160859 902687 525
176126 473835 449
386179 364905 423
320811 166346 443
211255 532045 470
422641 576931 470
846181 281133 525
755427 840877 525
755439 955963 525
396390 763717 509
578111 20092 470
360865 987939 525
592754 370804 470
981568 193580 525
420475 383407 449
18695 275952 443
582253 587827 434
17344 995122 525
724852 717516 411
67325 454814 449
987135 951043 458
793366 150272 509
564426 659612 509
274426 131581 443
624317 573379 447
226729 724535 509
284240 901581 525
101163 666115 509
116520 48140 354
451167 609987 470
967488 353861 525
907512 540461 525
819875 355528 509
309473 526249 470
668765 50589 509
644214 420787 509
734456 720278 411
680344 508752 509
876927 718959 525
264391 437966 449
480505 649786 509
426392 68773 449
118683 735443 509
888885 854661 445
920459 764032 525
514857 325256 470
581399 676920 509
938389 79297 525
540789 63391 470
879844 897821 445
909549 801338 525
792822 425784 509
57139 877885 525
240413 531056 470
581103 223130 470
10142 277266 443
993290 621234 525
932701 768953 525
46075 168832 383
768998 772825 393
995904 467502 525
436338 487680 444
516436 366919 470
278177 713142 509
572025 223809 470
196397 296185 443
580434 642015 509
